Code/raw code/waveform_tb.vcd
$date
	Mon Jun 02 16:59:15 2025
$end
$version
	Icarus Verilog
$end
$timescale
	1ps
$end
$scope module tb $end
$var wire 1 ! emergency_btn $end
$var wire 7 " segments [6:0] $end
$var wire 6 # seconds [5:0] $end
$var wire 4 $ minutes [3:0] $end
$var wire 5 % leds_fsm [4:0] $end
$var wire 1 & emergency_active $end
$var wire 8 ' AN [7:0] $end
$var reg 1 ( blink $end
$var reg 1 ) brake_btn $end
$var reg 1 * btnl_debounced $end
$var reg 1 + btnu_debounced $end
$var reg 1 , clk_disp $end
$var reg 1 - clk_main $end
$var reg 1 . four_way_sw $end
$var reg 1 / left_sw $end
$var reg 1 0 reverse_sw $end
$var reg 1 1 right_sw $end
$var reg 1 2 rst_disp $end
$var reg 1 3 rst_fsm $end
$scope module dut_display $end
$var wire 1 , clk_1kHz $end
$var wire 1 2 rst $end
$var wire 6 4 seconds [5:0] $end
$var wire 4 5 sec_units [3:0] $end
$var wire 4 6 sec_tens [3:0] $end
$var wire 4 7 minutes [3:0] $end
$var wire 4 8 min_units [3:0] $end
$var wire 4 9 min_tens [3:0] $end
$var wire 1 & enable $end
$var reg 8 : AN [7:0] $end
$var reg 2 ; digit_sel [1:0] $end
$var reg 4 < digit_value [3:0] $end
$var reg 4 = minutes_reg [3:0] $end
$var reg 6 > seconds_reg [5:0] $end
$var reg 7 ? segments [6:0] $end
$upscope $end
$scope module dut_fsm $end
$var wire 1 ( blink $end
$var wire 1 ) brake_btn $end
$var wire 1 - clk $end
$var wire 1 ! emergency_btn $end
$var wire 1 . four_way_sw $end
$var wire 1 / left_sw $end
$var wire 1 0 reverse_sw $end
$var wire 1 1 right_sw $end
$var wire 1 3 rst $end
$var parameter 3 @ EMERGENCY $end
$var parameter 3 A FOUR_WAY $end
$var parameter 3 B LEFT_TURN $end
$var parameter 3 C NORMAL $end
$var parameter 3 D RIGHT_TURN $end
$var reg 3 E current_state [2:0] $end
$var reg 1 & emergency_active $end
$var reg 5 F leds [4:0] $end
$var reg 3 G next_state [2:0] $end
$var reg 2 H turn_leds [1:0] $end
$upscope $end
$scope module dut_timer $end
$var wire 1 ( clk $end
$var wire 1 & enable $end
$var wire 1 I reset_as $end
$var reg 4 J minutes [3:0] $end
$var reg 1 K reset_sync $end
$var reg 6 L seconds [5:0] $end
$upscope $end
$upscope $end
$enddefinitions $end
$comment Show the parameter values. $end
$dumpall
b10 D
b100 C
b1 B
b11 A
b0 @
$end
#0
$dumpvars
bx L
xK
bx J
1I
b0 H
bx G
b0 F
bx E
bx ?
bx >
bx =
bx <
bx ;
bx :
bx 9
bx 8
bx 7
bx 6
bx 5
bx 4
13
12
01
00
0/
0.
0-
0,
0+
0*
0)
0(
bx '
0&
b0 %
bx $
bx #
bx "
0!
$end
#1000
b0 6
b0 5
b0 9
b0 8
b0 >
b0 =
b1111111 "
b1111111 ?
b11111111 '
b11111111 :
b0 ;
1,
#2000
0,
#3000
1,
#4000
0,
#5000
b100 G
b100 E
1,
1-
#6000
0,
#7000
1,
#8000
0,
#9000
1,
#10000
1K
b0 #
b0 4
b0 L
b0 $
b0 7
b0 J
0,
0-
1(
#11000
1,
#12000
0,
#13000
1,
#14000
0,
#15000
1,
1-
#16000
0,
#17000
1,
#18000
0,
#19000
1,
#20000
0,
0-
0(
#21000
1,
#22000
0,
#23000
1,
#24000
0,
#25000
1,
1-
#26000
0,
#27000
1,
#28000
0,
#29000
1,
#30000
0,
0-
1(
03
#31000
1,
#32000
0,
#33000
1,
#34000
0,
#35000
1,
1-
#36000
0,
#37000
1,
#38000
0,
#39000
1,
#40000
0,
0-
0(
#41000
1,
#42000
0,
#43000
1,
#44000
0,
#45000
1,
1-
#46000
0,
#47000
1,
#48000
0,
#49000
1,
#50000
0,
0-
1(
#51000
1,
#52000
b1100 %
b1100 F
0,
1)
#53000
1,
#54000
0,
#55000
1,
1-
#56000
0,
#57000
1,
#58000
0,
#59000
1,
#60000
b1100 %
b1100 F
0,
0-
0(
#61000
1,
#62000
0,
#63000
1,
#64000
0,
#65000
1,
1-
#66000
0,
#67000
1,
#68000
b0 %
b0 F
0,
0)
#69000
1,
#70000
0,
0-
1(
#71000
1,
#72000
0,
#73000
1,
#74000
0,
#75000
1,
1-
#76000
0,
#77000
1,
#78000
0,
#79000
1,
#80000
0,
0-
0(
#81000
1,
#82000
0,
#83000
1,
#84000
0,
#85000
1,
1-
#86000
0,
#87000
1,
#88000
0,
#89000
1,
#90000
b1 G
0,
0-
1(
1/
#91000
1,
#92000
0,
#93000
1,
#94000
0,
#95000
b10 %
b10 F
b10 H
b1 E
1,
1-
#96000
0,
#97000
1,
#98000
0,
#99000
1,
#100000
b0 H
b0 %
b0 F
0,
0-
0(
#101000
1,
#102000
0,
#103000
1,
#104000
0,
#105000
1,
1-
#106000
0,
#107000
1,
#108000
0,
#109000
1,
#110000
b10 %
b10 F
b10 H
0,
0-
1(
#111000
1,
#112000
0,
#113000
1,
#114000
0,
#115000
1,
1-
#116000
0,
#117000
1,
#118000
0,
#119000
1,
#120000
b0 H
b0 %
b0 F
0,
0-
0(
#121000
1,
#122000
0,
#123000
1,
#124000
0,
#125000
1,
1-
#126000
0,
#127000
1,
#128000
0,
#129000
1,
#130000
b10 %
b10 F
b10 H
0,
0-
1(
#131000
1,
#132000
0,
#133000
1,
#134000
0,
#135000
1,
1-
#136000
0,
#137000
1,
#138000
0,
#139000
1,
#140000
b0 H
b0 %
b0 F
0,
0-
0(
#141000
1,
#142000
0,
#143000
1,
#144000
0,
#145000
1,
1-
#146000
0,
#147000
1,
#148000
0,
#149000
1,
#150000
b10 %
b10 F
b10 H
0,
0-
1(
#151000
1,
#152000
0,
#153000
1,
#154000
0,
#155000
1,
1-
#156000
0,
#157000
1,
#158000
0,
#159000
1,
#160000
b0 H
b0 %
b0 F
0,
0-
0(
#161000
1,
#162000
b100 G
0,
0/
#163000
1,
#164000
0,
#165000
b100 E
1,
1-
#166000
0,
#167000
1,
#168000
0,
#169000
1,
#170000
0,
0-
1(
#171000
1,
#172000
0,
#173000
1,
#174000
0,
#175000
1,
1-
#176000
0,
#177000
1,
#178000
0,
#179000
1,
#180000
0,
0-
0(
#181000
1,
#182000
0,
#183000
1,
#184000
b10 G
0,
11
#185000
b10 E
1,
1-
#186000
0,
#187000
1,
#188000
0,
#189000
1,
#190000
b1 %
b1 F
b1 H
0,
0-
1(
#191000
1,
#192000
0,
#193000
1,
#194000
0,
#195000
1,
1-
#196000
0,
#197000
1,
#198000
0,
#199000
1,
#200000
b0 H
b0 %
b0 F
0,
0-
0(
#201000
1,
#202000
0I
0,
1&
#203000
1,
#204000
0,
#205000
1,
1-
#206000
0,
#207000
1,
#208000
0,
#209000
1,
#210000
0K
b1 %
b1 F
b1 H
0,
0-
1(
#211000
1,
#212000
0,
#213000
1,
#214000
0,
#215000
1,
1-
#216000
0,
#217000
1,
#218000
0,
#219000
1,
#220000
b0 H
b0 %
b0 F
0,
0-
0(
#221000
1,
#222000
0,
#223000
1,
#224000
0,
#225000
1,
1-
#226000
0,
#227000
1,
#228000
0,
#229000
1,
#230000
b1 #
b1 4
b1 L
b1 %
b1 F
b1 H
0,
0-
1(
#231000
1,
#232000
0,
#233000
1,
#234000
0,
#235000
1,
1-
#236000
0,
#237000
1,
#238000
0,
#239000
1,
#240000
b0 H
b0 %
b0 F
0,
0-
0(
#241000
1,
#242000
b100 G
0,
01
#243000
1,
#244000
0,
#245000
b100 E
1,
1-
#246000
0,
#247000
1,
#248000
0,
#249000
1,
#250000
b10 #
b10 4
b10 L
0,
0-
1(
#251000
1,
#252000
0,
#253000
1,
#254000
0,
#255000
1,
1-
#256000
0,
#257000
1,
#258000
0,
#259000
1,
#260000
0,
0-
0(
#261000
1,
#262000
0,
#263000
1,
#264000
b11 G
0,
1.
#265000
b11 E
1,
1-
#266000
0,
#267000
1,
#268000
0,
#269000
1,
#270000
b11 #
b11 4
b11 L
b11 %
b11 F
b11 H
0,
0-
1(
#271000
1,
#272000
0,
#273000
1,
#274000
0,
#275000
1,
1-
#276000
0,
#277000
1,
#278000
0,
#279000
1,
#280000
b0 H
b0 %
b0 F
0,
0-
0(
#281000
1,
#282000
0,
#283000
1,
#284000
0,
#285000
1,
1-
#286000
0,
#287000
1,
#288000
0,
#289000
1,
#290000
b100 #
b100 4
b100 L
b11 %
b11 F
b11 H
0,
0-
1(
#291000
1,
#292000
0,
#293000
1,
#294000
0,
#295000
1,
1-
#296000
0,
#297000
1,
#298000
0,
#299000
1,
#300000
b0 H
b0 %
b0 F
0,
0-
0(
#301000
1,
#302000
0,
#303000
1,
#304000
0,
#305000
1,
1-
#306000
0,
#307000
1,
#308000
0,
#309000
1,
#310000
b101 #
b101 4
b101 L
b11 %
b11 F
b11 H
0,
0-
1(
#311000
1,
#312000
0,
#313000
1,
#314000
0,
#315000
1,
1-
#316000
0,
#317000
1,
#318000
0,
#319000
1,
#320000
b0 H
b0 %
b0 F
0,
0-
0(
#321000
1,
#322000
b100 G
0,
0.
#323000
1,
#324000
0,
#325000
b100 E
1,
1-
#326000
0,
#327000
1,
#328000
0,
#329000
1,
#330000
b110 #
b110 4
b110 L
0,
0-
1(
#331000
1,
#332000
0,
#333000
1,
#334000
0,
#335000
1,
1-
#336000
0,
#337000
1,
#338000
0,
#339000
1,
#340000
0,
0-
0(
#341000
1,
#342000
0,
#343000
1,
#344000
b10000 %
b10000 F
0,
10
#345000
1,
1-
#346000
0,
#347000
1,
#348000
0,
#349000
1,
#350000
b111 #
b111 4
b111 L
b10000 %
b10000 F
0,
0-
1(
#351000
1,
#352000
0,
#353000
1,
#354000
0,
#355000
1,
1-
#356000
0,
#357000
1,
#358000
0,
#359000
1,
#360000
b0 %
b0 F
0,
0-
00
0(
#361000
1,
#362000
0,
#363000
1,
#364000
0,
#365000
1,
1-
#366000
0,
#367000
1,
#368000
0,
#369000
1,
#370000
b1000 #
b1000 4
b1000 L
0,
0-
1(
#371000
1,
#372000
0,
#373000
1,
#374000
0,
#375000
1,
1-
#376000
0,
#377000
1,
#378000
0,
#379000
1,
#380000
0,
0-
0(
#381000
1,
#382000
b1 G
b1100 %
b1100 F
0,
1/
1)
#383000
1,
#384000
0,
#385000
b1100 %
b1100 F
b1 E
1,
1-
#386000
0,
#387000
1,
#388000
0,
#389000
1,
#390000
b1001 #
b1001 4
b1001 L
b10 H
b1110 %
b1110 F
0,
0-
1(
#391000
1,
#392000
0,
#393000
1,
#394000
0,
#395000
1,
1-
#396000
0,
#397000
1,
#398000
0,
#399000
1,
#400000
b0 H
b1100 %
b1100 F
0,
0-
0(
1&
02
#401000
b1001 5
b1 ;
b1000000 "
b1000000 ?
b11111110 '
b11111110 :
b1001 >
b0 <
1,
#402000
0,
#403000
b10 ;
b11111101 '
b11111101 :
1,
#404000
0,
#405000
b11 ;
b11111011 '
b11111011 :
1,
1-
#406000
0,
#407000
b0 ;
b11110111 '
b11110111 :
1,
#407100
12
1&
#408000
0,
#409000
b0 5
b0 >
b1111111 "
b1111111 ?
b11111111 '
b11111111 :
1,
#410000
b1010 #
b1010 4
b1010 L
1I
b10 H
0&
b1110 %
b1110 F
0,
0-
1(
#411000
1,
#412000
0,
#413000
1,
#414000
0,
#415000
1,
1-
#416000
0,
#417000
1,
#418000
0,
#419000
1,
#420000
b0 H
b1100 %
b1100 F
0,
0-
0(
